.............
----------------------------------------------------------------------
Ran 13 tests in 0.001s

OK
Name               Stmts   Miss Branch BrPart  Cover   Missing
--------------------------------------------------------------
Diplomacy.py          61      0     38      1    99%   73->69
TestDiplomacy.py      67      0      0      0   100%
--------------------------------------------------------------
TOTAL                128      0     38      1    99%
